G04 Layer_Physical_Order=1*
G04 Layer_Color=255*
%FSLAX44Y44*%
%MOMM*%
G71*
G01*
G75*
%ADD10O,0.3000X1.8000*%
%ADD11O,1.8000X0.3000*%
%ADD12R,1.5000X0.6000*%
%ADD13R,0.7000X0.8000*%
%ADD14R,1.0000X0.9000*%
%ADD15R,0.8000X0.8000*%
%ADD16R,2.0000X0.8000*%
%ADD17R,0.2800X0.8000*%
%ADD18R,2.5000X1.5000*%
%ADD19R,0.8000X0.7000*%
%ADD20R,0.6000X0.8000*%
%ADD21R,0.8000X0.6000*%
%ADD22R,1.0000X1.0000*%
%ADD23R,0.5000X0.3750*%
%ADD24R,1.0000X1.0000*%
%ADD25C,0.3000*%
%ADD26C,0.1270*%
%ADD27C,0.1524*%
%ADD28C,0.2800*%
%ADD29C,0.4000*%
%ADD30C,0.6000*%
%ADD31C,0.2300*%
%ADD32C,0.2100*%
%ADD33C,0.6110*%
%ADD34C,0.6858*%
D10*
X862500Y905500D02*
D03*
X867500Y905500D02*
D03*
X902500D02*
D03*
X907500D02*
D03*
X932500Y905500D02*
D03*
X937500Y905500D02*
D03*
X942500D02*
D03*
X957500D02*
D03*
X972500D02*
D03*
X977500D02*
D03*
X982500D02*
D03*
X1017500D02*
D03*
X1032500Y905500D02*
D03*
X1037500D02*
D03*
Y694500D02*
D03*
X1032500D02*
D03*
X1027500D02*
D03*
X1022500D02*
D03*
X1017500D02*
D03*
X1012500D02*
D03*
X1007500D02*
D03*
X1002500D02*
D03*
X997500D02*
D03*
X992500D02*
D03*
X987500D02*
D03*
X982500Y694500D02*
D03*
X977500Y694500D02*
D03*
X972500D02*
D03*
X967500D02*
D03*
X962500D02*
D03*
X957500D02*
D03*
X952500D02*
D03*
X947500Y694500D02*
D03*
X942500D02*
D03*
X937500Y694500D02*
D03*
X932500D02*
D03*
X927500D02*
D03*
X922500D02*
D03*
X917500D02*
D03*
X912500D02*
D03*
X907500D02*
D03*
X902500D02*
D03*
X897500D02*
D03*
X892500D02*
D03*
X887500D02*
D03*
X882500D02*
D03*
X877500D02*
D03*
X872500D02*
D03*
X867500D02*
D03*
X862500D02*
D03*
X1027500Y905500D02*
D03*
X1022500D02*
D03*
X1012500D02*
D03*
X1007500D02*
D03*
X1002500Y905500D02*
D03*
X997500D02*
D03*
X992500D02*
D03*
X987500Y905500D02*
D03*
X967500D02*
D03*
X962500D02*
D03*
X952500D02*
D03*
X947500D02*
D03*
X927500Y905500D02*
D03*
X922500Y905500D02*
D03*
X917500D02*
D03*
X912500D02*
D03*
X897500Y905500D02*
D03*
X892500D02*
D03*
X887500Y905500D02*
D03*
X882500D02*
D03*
X877500D02*
D03*
X872500D02*
D03*
D11*
X1055500Y887500D02*
D03*
X1055500Y882500D02*
D03*
Y877500D02*
D03*
X1055500Y862500D02*
D03*
Y857500D02*
D03*
Y852500D02*
D03*
Y827500D02*
D03*
Y802500D02*
D03*
Y797500D02*
D03*
Y792500D02*
D03*
Y787500D02*
D03*
X1055500Y777500D02*
D03*
Y772500D02*
D03*
X1055500Y767500D02*
D03*
Y752500D02*
D03*
Y747500D02*
D03*
Y732500D02*
D03*
Y727500D02*
D03*
Y722500D02*
D03*
Y717500D02*
D03*
Y712500D02*
D03*
X844500D02*
D03*
Y717500D02*
D03*
X844500Y722500D02*
D03*
X844500Y737500D02*
D03*
Y742500D02*
D03*
Y747500D02*
D03*
Y752500D02*
D03*
Y767500D02*
D03*
Y772500D02*
D03*
Y777500D02*
D03*
X844500Y792500D02*
D03*
Y797500D02*
D03*
X844500Y802500D02*
D03*
X844500Y827500D02*
D03*
X844500Y852500D02*
D03*
Y857500D02*
D03*
Y872500D02*
D03*
Y877500D02*
D03*
Y882500D02*
D03*
Y887500D02*
D03*
X1055500Y782500D02*
D03*
X1055500Y762500D02*
D03*
Y757500D02*
D03*
X1055500Y742500D02*
D03*
Y737500D02*
D03*
X1055500Y812500D02*
D03*
Y807500D02*
D03*
Y822500D02*
D03*
Y817500D02*
D03*
X1055500Y837500D02*
D03*
X1055500Y832500D02*
D03*
X1055500Y847500D02*
D03*
Y842500D02*
D03*
X1055500Y872500D02*
D03*
Y867500D02*
D03*
X844500Y732500D02*
D03*
Y727500D02*
D03*
Y762500D02*
D03*
Y757500D02*
D03*
X844500Y787500D02*
D03*
X844500Y782500D02*
D03*
Y812500D02*
D03*
Y807500D02*
D03*
Y822500D02*
D03*
Y817500D02*
D03*
Y837500D02*
D03*
X844500Y832500D02*
D03*
X844500Y847500D02*
D03*
Y842500D02*
D03*
Y867500D02*
D03*
Y862500D02*
D03*
D12*
X1112000Y697500D02*
D03*
X1093000Y688000D02*
D03*
Y707000D02*
D03*
D13*
X1067500Y689000D02*
D03*
Y701000D02*
D03*
X730000Y729000D02*
D03*
Y741000D02*
D03*
X710000Y741000D02*
D03*
Y729000D02*
D03*
X740000Y734000D02*
D03*
Y746000D02*
D03*
X760000Y734000D02*
D03*
Y746000D02*
D03*
X1057500Y701000D02*
D03*
Y689000D02*
D03*
D14*
X810000Y685500D02*
D03*
Y699500D02*
D03*
X840000D02*
D03*
Y685500D02*
D03*
D15*
X1129250Y687500D02*
D03*
X1145750D02*
D03*
X1183250D02*
D03*
X1166750D02*
D03*
D16*
X776250Y692750D02*
D03*
Y712750D02*
D03*
X716250Y692750D02*
D03*
Y712750D02*
D03*
D17*
X735000Y688750D02*
D03*
X739500D02*
D03*
X744000D02*
D03*
X748500D02*
D03*
X753000D02*
D03*
X757500D02*
D03*
Y716750D02*
D03*
X753000D02*
D03*
X748500D02*
D03*
X744000D02*
D03*
X739500D02*
D03*
X735000D02*
D03*
D18*
X746250Y702750D02*
D03*
D19*
X1169000Y697500D02*
D03*
X1181000D02*
D03*
X1143500Y697500D02*
D03*
X1131500D02*
D03*
D20*
X797500Y698500D02*
D03*
Y686500D02*
D03*
X720000Y729000D02*
D03*
Y741000D02*
D03*
X750000Y746000D02*
D03*
Y734000D02*
D03*
D21*
X809000Y752500D02*
D03*
X821000D02*
D03*
X809000Y792500D02*
D03*
X821000D02*
D03*
X809000Y712500D02*
D03*
X821000D02*
D03*
X821000Y737500D02*
D03*
X809000D02*
D03*
X821000Y802500D02*
D03*
X809000D02*
D03*
X821000Y872500D02*
D03*
X809000D02*
D03*
X1091000Y791000D02*
D03*
X1079000D02*
D03*
X1091000Y800000D02*
D03*
X1079000D02*
D03*
X1079000Y862500D02*
D03*
X1091000D02*
D03*
X1079000Y774750D02*
D03*
X1091000D02*
D03*
X1075500Y730000D02*
D03*
X1087500D02*
D03*
D22*
X1129500Y712500D02*
D03*
X1145500D02*
D03*
X1079250Y811000D02*
D03*
X1095250D02*
D03*
D23*
X772500Y735500D02*
D03*
Y729500D02*
D03*
D24*
X1115000Y789500D02*
D03*
Y805500D02*
D03*
D25*
X937500Y730000D02*
X947500Y720000D01*
X821000Y752500D02*
X844500D01*
X821000Y792500D02*
X844500D01*
X1017500Y694500D02*
Y715000D01*
X947500Y694500D02*
Y720000D01*
X922500Y682500D02*
Y694500D01*
X887500Y682500D02*
Y694500D01*
X942500Y682500D02*
Y694500D01*
X937500Y694500D02*
Y707500D01*
X992500Y682500D02*
Y694500D01*
X952500Y682500D02*
Y694500D01*
X822500Y827500D02*
X844500D01*
X844500Y877500D02*
X860000D01*
X860000Y877500D01*
X821000Y872500D02*
X830000D01*
X844500D01*
X1076500Y797500D02*
X1079000Y800000D01*
X937500Y890000D02*
Y905500D01*
X942500D02*
Y917500D01*
X957500Y905500D02*
Y917500D01*
X972500Y905500D02*
Y917500D01*
X907500Y905500D02*
Y917500D01*
X1042500Y802500D02*
X1055500D01*
X1055500Y777500D02*
X1070000D01*
X1072500Y775000D01*
X830000Y767500D02*
X844500D01*
X830000Y767500D02*
X830000Y767500D01*
X902500Y892500D02*
Y905500D01*
X902500Y892500D02*
X902500Y892500D01*
X1017500Y715000D02*
X1017500D01*
X821000Y802500D02*
X844500D01*
X821000Y737500D02*
X844500D01*
X1055500Y727500D02*
X1076500D01*
X1055500Y862500D02*
X1079000D01*
X1076500Y727500D02*
X1079000Y730000D01*
X1072500Y775000D02*
X1075250D01*
X1079000D01*
X1055500Y792500D02*
X1076500D01*
X1079000Y790000D01*
X821000Y712500D02*
X844500D01*
X1055500Y797500D02*
X1076500D01*
D26*
X897247Y784249D02*
X897248Y784250D01*
X909250D01*
X924825Y799825D01*
X973634D01*
X952500Y794250D02*
Y794500D01*
X951750Y793500D02*
X952500Y794250D01*
X922750Y793500D02*
X951750D01*
X894750Y765500D02*
X922750Y793500D01*
X871000Y736750D02*
Y758200D01*
X867500Y733250D02*
X871000Y736750D01*
X867500Y694500D02*
Y733250D01*
X1066365Y820615D02*
Y821050D01*
X1063250Y817500D02*
X1066365Y820615D01*
X1055500Y817500D02*
X1063250D01*
X1063908Y822500D02*
X1069448Y828040D01*
X1055500Y822500D02*
X1063908D01*
X1056135Y808135D02*
X1063711D01*
X1067024Y811448D01*
X1055500Y807500D02*
X1056135Y808135D01*
X1067024Y811448D02*
Y811468D01*
X1055500Y812500D02*
X1056135Y813135D01*
X1065099D01*
X1073464Y821500D01*
X1136250D01*
X1067024Y811468D02*
X1074516Y818960D01*
X1137302D01*
X1138046Y819704D01*
X1138046D01*
X1141092Y822750D01*
X1167750D01*
X1136250Y821500D02*
X1140040Y825290D01*
X1167750D01*
X1055500Y807500D02*
X1063076D01*
X1066405Y821405D02*
X1070500Y825500D01*
X1066405Y821090D02*
Y821405D01*
X1066365Y821050D02*
X1066405Y821090D01*
X1070500Y825500D02*
X1131842D01*
X706750Y685500D02*
X734750D01*
X703250Y689000D02*
X706750Y685500D01*
X703250Y689000D02*
Y734250D01*
X710000Y741000D01*
X1124004Y881504D02*
X1129509D01*
X1120000Y877500D02*
X1124004Y881504D01*
X1125490Y886754D02*
X1134759D01*
X1119735Y881000D02*
X1125490Y886754D01*
X1142725Y894290D02*
X1147210Y889805D01*
X1117631Y886080D02*
X1125841Y894290D01*
X1142725D01*
X1138250Y891750D02*
X1142250Y887750D01*
X1126893Y891750D02*
X1138250D01*
X1118683Y883540D02*
X1126893Y891750D01*
X1073012Y886080D02*
X1117631D01*
X1124994Y874994D02*
X1157098D01*
X1124250Y874250D02*
X1124994Y874994D01*
X1126046Y872454D02*
X1156046D01*
X1122322Y868730D02*
X1126046Y872454D01*
X1127494Y869744D02*
X1155164D01*
X1114020Y856270D02*
X1127494Y869744D01*
X1128546Y867204D02*
X1154112D01*
X1115072Y853730D02*
X1128546Y867204D01*
X1055500Y877500D02*
X1120000D01*
X1147210Y888295D02*
X1147255Y888250D01*
X1147210Y888295D02*
Y889805D01*
X1147255Y888250D02*
X1150000D01*
X1065647Y893445D02*
X1073012Y886080D01*
X1040832Y893445D02*
X1065647D01*
X1039780Y890905D02*
X1064595D01*
X1071960Y883540D01*
X1118683D01*
X1067250Y881000D02*
X1119735D01*
X1065750Y882500D02*
X1067250Y881000D01*
X1055500Y882500D02*
X1065750D01*
X1037500Y896777D02*
X1040832Y893445D01*
X1037500Y896777D02*
Y905500D01*
X1032500Y898185D02*
X1039780Y890905D01*
X1032500Y898185D02*
Y905500D01*
X1161290Y785540D02*
X1176000D01*
X1143040Y767290D02*
X1161290Y785540D01*
X1162342Y783000D02*
X1176000D01*
X1144092Y764750D02*
X1162342Y783000D01*
X1071730Y764750D02*
X1144092D01*
X1072782Y767290D02*
X1143040D01*
X1162290Y777290D02*
X1168000D01*
X1146270Y761270D02*
X1162290Y777290D01*
X1163342Y774750D02*
X1168000D01*
X1147322Y758730D02*
X1163342Y774750D01*
X1066365Y758730D02*
X1147322D01*
X1066365Y761270D02*
X1146270D01*
X1166790Y769540D02*
X1177000D01*
X1148520Y751270D02*
X1166790Y769540D01*
X1167842Y767000D02*
X1177000D01*
X1149572Y748730D02*
X1167842Y767000D01*
X1066365Y748730D02*
X1149572D01*
X1066365Y751270D02*
X1148520D01*
X1152822Y738730D02*
X1169296Y755204D01*
X1066365Y738730D02*
X1152822D01*
X1151770Y741270D02*
X1167500Y757000D01*
X1066365Y741270D02*
X1151770D01*
X1161842Y730250D02*
X1176796Y745204D01*
X1119842Y730250D02*
X1161842D01*
X1160790Y732790D02*
X1175000Y747000D01*
X1118790Y732790D02*
X1160790D01*
X1107270Y721270D02*
X1118790Y732790D01*
X1108322Y718730D02*
X1119842Y730250D01*
X1066365Y718730D02*
X1108322D01*
X1066365Y721270D02*
X1107270D01*
X1166738Y814040D02*
X1176750D01*
X1158250Y805552D02*
X1166738Y814040D01*
X1158250Y793842D02*
Y805552D01*
X1167790Y811500D02*
X1176750D01*
X1160790Y804500D02*
X1167790Y811500D01*
X1160790Y792790D02*
Y804500D01*
X1155704Y787704D02*
X1160790Y792790D01*
X1154652Y790244D02*
X1158250Y793842D01*
X1140994Y790244D02*
X1154652D01*
X1140250Y789500D02*
X1140994Y790244D01*
X1140250Y789500D02*
X1140250D01*
X1142046Y787704D02*
X1155704D01*
X1134592Y780250D02*
X1142046Y787704D01*
X1134592Y780250D02*
X1134592D01*
X1133848Y779506D02*
X1134592Y780250D01*
X1100994Y779506D02*
X1133848D01*
X1100250Y780250D02*
X1100994Y779506D01*
X1100250Y780250D02*
X1100250D01*
X1132796Y782046D02*
X1140250Y789500D01*
X1102046Y782046D02*
X1132796D01*
X1136540Y833790D02*
X1175250D01*
X1130790Y828040D02*
X1136540Y833790D01*
X1137592Y831250D02*
X1175250D01*
X1131842Y825500D02*
X1137592Y831250D01*
X1069448Y828040D02*
X1130790D01*
X1129290Y845540D02*
X1141500D01*
X1120020Y836270D02*
X1129290Y845540D01*
X1130342Y843000D02*
X1141500D01*
X1121072Y833730D02*
X1130342Y843000D01*
X1066365Y833730D02*
X1121072D01*
X1066365Y836270D02*
X1120020D01*
X1125040Y853790D02*
X1147500D01*
X1117520Y846270D02*
X1125040Y853790D01*
X1126092Y851250D02*
X1147500D01*
X1118572Y843730D02*
X1126092Y851250D01*
X1066365Y843730D02*
X1118572D01*
X1066365Y846270D02*
X1117520D01*
X1170040Y845000D02*
Y854868D01*
X1167500Y845000D02*
Y853816D01*
X1155164Y869744D02*
X1170040Y854868D01*
X1154112Y867204D02*
X1167500Y853816D01*
X1066365Y853730D02*
X1115072D01*
X1066365Y856270D02*
X1114020D01*
X1157842Y874250D02*
X1178546Y853546D01*
X1157842Y874250D02*
X1157842D01*
X1157098Y874994D02*
X1157842Y874250D01*
X1124250D02*
X1124250D01*
X1156046Y872454D02*
X1176750Y851750D01*
X1066365Y868730D02*
X1122322D01*
X1121270Y871270D02*
X1124250Y874250D01*
X1066365Y871270D02*
X1121270D01*
X784243Y818257D02*
X787665D01*
X789461Y813039D02*
Y816461D01*
X787665Y818257D02*
X790678Y821270D01*
X833635D01*
X789461Y816461D02*
X791730Y818730D01*
X785993Y803507D02*
X789415D01*
X797178Y811270D01*
X791211Y798289D02*
Y801711D01*
X798230Y808730D01*
X767658Y787000D02*
X795928Y758730D01*
X721750Y787000D02*
X767658D01*
X796980Y761270D02*
X833635D01*
X768710Y789540D02*
X796980Y761270D01*
X721750Y789540D02*
X768710D01*
X768658Y799000D02*
X793928Y773730D01*
X731250Y799000D02*
X768658D01*
X794980Y776270D02*
X833635D01*
X769710Y801540D02*
X794980Y776270D01*
X731250Y801540D02*
X769710D01*
X770408Y807250D02*
X793928Y783730D01*
X721250Y807250D02*
X770408D01*
X794980Y786270D02*
X833635D01*
X771460Y809790D02*
X794980Y786270D01*
X721250Y809790D02*
X771460D01*
X797178Y811270D02*
X833635D01*
X798230Y808730D02*
X833635D01*
X777210Y847250D02*
Y877052D01*
X786428Y886270D01*
X779750Y847250D02*
Y876000D01*
X787480Y883730D01*
X786428Y886270D02*
X833635D01*
X787480Y883730D02*
X833635D01*
X730500Y835210D02*
X779210D01*
X730500Y837750D02*
X778158D01*
X785408Y845000D01*
X794500D01*
X779210Y835210D02*
X783782Y839782D01*
X789282D01*
X881540Y827750D02*
X881960D01*
X879540Y829750D02*
X881540Y827750D01*
X874580D02*
X875000D01*
X877000Y829750D01*
X879540D02*
Y875218D01*
X896270Y891948D01*
Y894635D01*
X877000Y829750D02*
Y876270D01*
X893730Y893000D01*
X897290Y835000D02*
X897710D01*
X895290Y837000D02*
X897290Y835000D01*
X890330D02*
X890750D01*
X892750Y837000D01*
X895290D02*
Y870468D01*
X916270Y891448D01*
X892750Y837000D02*
Y871520D01*
X913730Y892500D01*
X910750Y840250D02*
X912670D01*
X910250Y840750D02*
X910750Y840250D01*
X905290D02*
X907210D01*
X907710Y840750D01*
Y855460D01*
X910250Y840750D02*
Y854408D01*
X926270Y870428D01*
Y894635D01*
X907710Y855460D02*
X923730Y871480D01*
X921370Y848250D02*
Y851370D01*
X928750Y848250D02*
Y855158D01*
X951270Y877678D01*
X921370Y851370D02*
X948730Y878730D01*
X938620Y850750D02*
Y850870D01*
X946000Y850750D02*
Y854658D01*
X966270Y874928D01*
Y894635D01*
X938620Y850870D02*
X963730Y875980D01*
X793928Y783730D02*
X833635D01*
X793928Y773730D02*
X833635D01*
X795928Y758730D02*
X833635D01*
X731000Y781790D02*
X766460D01*
X801980Y746270D01*
X731000Y779250D02*
X765408D01*
X800928Y743730D01*
X833635D01*
X801980Y746270D02*
X833635D01*
X802230Y721270D02*
X833635D01*
X801178Y718730D02*
X833635D01*
X729750Y762040D02*
X761460D01*
X802230Y721270D01*
X729750Y759500D02*
X760408D01*
X801178Y718730D01*
X720750Y770040D02*
X766460D01*
X805230Y731270D01*
X720750Y767500D02*
X765408D01*
X804178Y728730D01*
X833635D01*
X805230Y731270D02*
X833635D01*
X721500Y843710D02*
X736512D01*
X743500Y850698D01*
X721500Y846250D02*
X735460D01*
X740960Y851750D01*
Y878052D01*
X743500Y850698D02*
Y877000D01*
X740960Y878052D02*
X757698Y894790D01*
X853210D01*
X743500Y877000D02*
X758750Y892250D01*
X738080Y897330D02*
X854262D01*
X867477Y897250D02*
X867500D01*
X858144Y897040D02*
X862500D01*
X727960Y857250D02*
Y890802D01*
X737028Y899870D01*
X730500Y857250D02*
Y889750D01*
X737028Y899870D02*
X855314D01*
X730500Y889750D02*
X738080Y897330D01*
X719960Y865250D02*
Y900302D01*
X741448Y921790D01*
X722500Y865250D02*
Y899250D01*
X742500Y919250D01*
X741448Y921790D02*
X872282D01*
X742500Y919250D02*
X871230D01*
X1055500Y747500D02*
X1065135D01*
X1066365Y748730D01*
X1055500Y752500D02*
X1065135D01*
X1066365Y751270D01*
X1055500Y757500D02*
X1065135D01*
X1066365Y758730D01*
X1055500Y762500D02*
X1065135D01*
X1066365Y761270D01*
X1055500Y737500D02*
X1065135D01*
X1066365Y738730D01*
X1055500Y742500D02*
X1065135D01*
X1066365Y741270D01*
X1055500Y767500D02*
X1065135D01*
X1066365Y768730D01*
X1067750D01*
X1055500Y772500D02*
X1065135D01*
X1066365Y771270D01*
X1067750Y768730D02*
X1071730Y764750D01*
X1066365Y771270D02*
X1068802D01*
X1072782Y767290D01*
X1055500Y782500D02*
X1065135D01*
X1066000Y783365D01*
X1055500Y787500D02*
X1065457D01*
X1067291Y785666D01*
X1066238Y783126D02*
X1097374D01*
X1100250Y780250D01*
X1067291Y785666D02*
X1098426D01*
X1102046Y782046D01*
X1066000Y783365D02*
Y783365D01*
Y783365D02*
X1066238Y783126D01*
X1055500Y832500D02*
X1065135D01*
X1066365Y833730D01*
X1055500Y837500D02*
X1065135D01*
X1066365Y836270D01*
X1055500Y842500D02*
X1065135D01*
X1066365Y843730D01*
X1055500Y847500D02*
X1065135D01*
X1066365Y846270D01*
X1055500Y852500D02*
X1065135D01*
X1066365Y853730D01*
X1055500Y857500D02*
X1065135D01*
X1066365Y856270D01*
X1055500Y867500D02*
X1065135D01*
X1066365Y868730D01*
X1055500Y872500D02*
X1065135D01*
X1066365Y871270D01*
X1055500Y717500D02*
X1065135D01*
X1066365Y718730D01*
X1055500Y722500D02*
X1065135D01*
X1066365Y721270D01*
X834865Y717500D02*
X844500D01*
X833635Y718730D02*
X834865Y717500D01*
X834865Y722500D02*
X844500D01*
X833635Y721270D02*
X834865Y722500D01*
X834865Y727500D02*
X844500D01*
X833635Y728730D02*
X834865Y727500D01*
Y732500D02*
X844500D01*
X833635Y731270D02*
X834865Y732500D01*
Y742500D02*
X844500D01*
X833635Y743730D02*
X834865Y742500D01*
Y747500D02*
X844500D01*
X833635Y746270D02*
X834865Y747500D01*
Y757500D02*
X844500D01*
X833635Y758730D02*
X834865Y757500D01*
Y762500D02*
X844500D01*
X833635Y761270D02*
X834865Y762500D01*
Y772500D02*
X844500D01*
X833635Y773730D02*
X834865Y772500D01*
Y777500D02*
X844500D01*
X833635Y776270D02*
X834865Y777500D01*
Y782500D02*
X844500D01*
X833635Y783730D02*
X834865Y782500D01*
X834865Y787500D02*
X844500D01*
X833635Y786270D02*
X834865Y787500D01*
X834865Y807500D02*
X844500D01*
X833635Y808730D02*
X834865Y807500D01*
Y812500D02*
X844500D01*
X833635Y811270D02*
X834865Y812500D01*
Y817500D02*
X844500D01*
X833635Y818730D02*
X834865Y817500D01*
Y822500D02*
X844500D01*
X833635Y821270D02*
X834865Y822500D01*
X791730Y818730D02*
X833635D01*
X834865Y832500D02*
X844500D01*
X833635Y833730D02*
X834865Y832500D01*
X834865Y837500D02*
X844500D01*
X833635Y836270D02*
X834865Y837500D01*
X828250Y833730D02*
X833635D01*
X828250Y836270D02*
X833635D01*
X834865Y842500D02*
X844500D01*
X833635Y843730D02*
X834865Y842500D01*
X828750Y843730D02*
X833635D01*
X834865Y847500D02*
X844500D01*
X833635Y846270D02*
X834865Y847500D01*
X828750Y846270D02*
X833635D01*
X834865Y852500D02*
X844500D01*
X833635Y853730D02*
X834865Y852500D01*
X828750Y853730D02*
X833635D01*
X834865Y857500D02*
X844500D01*
X833635Y856270D02*
X834865Y857500D01*
X828750Y856270D02*
X833635D01*
X834865Y862500D02*
X844500D01*
X833635Y863730D02*
X834865Y862500D01*
X828250Y863730D02*
X833635D01*
X834865Y867500D02*
X844500D01*
X833635Y866270D02*
X834865Y867500D01*
X828250Y866270D02*
X833635D01*
X834865Y882500D02*
X844500D01*
X833635Y883730D02*
X834865Y882500D01*
Y887500D02*
X844500D01*
X833635Y886270D02*
X834865Y887500D01*
X1022500Y895865D02*
Y905500D01*
Y895865D02*
X1023730Y894635D01*
Y890890D02*
Y894635D01*
X1027500Y895865D02*
Y905500D01*
X1026270Y894635D02*
X1027500Y895865D01*
X1026270Y893500D02*
Y894635D01*
Y893500D02*
X1027770Y892000D01*
X1030000D01*
X1023730Y890890D02*
X1030000Y884620D01*
X1007500Y895865D02*
Y905500D01*
Y895865D02*
X1008730Y894635D01*
X1012500Y895865D02*
Y905500D01*
X1011270Y894635D02*
X1012500Y895865D01*
X1008730Y890500D02*
Y894635D01*
X1011270Y886021D02*
Y894635D01*
X1010753Y885504D02*
X1011270Y886021D01*
X1003250Y885020D02*
X1008730Y890500D01*
X997500Y895865D02*
Y905500D01*
Y895865D02*
X998730Y894635D01*
X1002500Y895865D02*
Y905500D01*
X1001270Y894635D02*
X1002500Y895865D01*
X998730Y891107D02*
Y894635D01*
X1001270Y890054D02*
Y894635D01*
X995750Y884535D02*
X1001270Y890054D01*
X995750Y880500D02*
Y884535D01*
X988250Y880627D02*
X998730Y891107D01*
X988250Y878250D02*
Y880627D01*
X987500Y895865D02*
Y905500D01*
Y895865D02*
X988730Y894635D01*
X992500Y895865D02*
Y905500D01*
X991270Y894635D02*
X992500Y895865D01*
X988730Y889980D02*
Y894635D01*
X991270Y888928D02*
Y894635D01*
X983290Y880948D02*
X991270Y888928D01*
X980960Y882210D02*
X988730Y889980D01*
X980960Y882210D02*
Y882210D01*
X980750Y882000D02*
X980960Y882210D01*
X982500Y895865D02*
Y905500D01*
X981270Y894635D02*
X982500Y895865D01*
X962500D02*
Y905500D01*
Y895865D02*
X963730Y894635D01*
Y875980D02*
Y894635D01*
X967500Y895865D02*
Y905500D01*
X966270Y894635D02*
X967500Y895865D01*
X947500D02*
Y905500D01*
Y895865D02*
X948730Y894635D01*
Y878730D02*
Y894635D01*
X952500Y895865D02*
Y905500D01*
X951270Y894635D02*
X952500Y895865D01*
X951270Y877678D02*
Y894635D01*
X922500Y895865D02*
Y905500D01*
Y895865D02*
X923730Y894635D01*
Y871480D02*
Y894635D01*
X927500Y895865D02*
Y905500D01*
X926270Y894635D02*
X927500Y895865D01*
X912500Y895865D02*
Y905500D01*
Y895865D02*
X913730Y894635D01*
Y892500D02*
Y894635D01*
X917500Y895865D02*
Y905500D01*
X916270Y894635D02*
X917500Y895865D01*
X916270Y891448D02*
Y894635D01*
X892500Y895865D02*
Y905500D01*
Y895865D02*
X893730Y894635D01*
Y893000D02*
Y894635D01*
X897500Y895865D02*
Y905500D01*
X896270Y894635D02*
X897500Y895865D01*
X882500Y895865D02*
Y905500D01*
Y895865D02*
X883730Y894635D01*
X887500Y895865D02*
Y905500D01*
X886270Y894635D02*
X887500Y895865D01*
X872500Y905500D02*
Y915135D01*
X873730Y916365D01*
Y916750D01*
X877500Y905500D02*
Y915135D01*
X876270Y916365D02*
X877500Y915135D01*
X871230Y919250D02*
X873730Y916750D01*
X876270Y916365D02*
Y917802D01*
X872282Y921790D02*
X876270Y917802D01*
X758750Y892250D02*
X852158D01*
X854262Y897330D02*
X857092Y894500D01*
X864727D01*
X855314Y899870D02*
X858144Y897040D01*
X862500D02*
Y905500D01*
X864727Y894500D02*
X867477Y897250D01*
X867500D02*
Y905500D01*
X886270Y891270D02*
Y894635D01*
X883730Y892322D02*
Y894635D01*
X852158Y892250D02*
X856408Y888000D01*
X883000D01*
X886270Y891270D01*
X853210Y894790D02*
X857460Y890540D01*
X881948D01*
X883730Y892322D01*
X983290Y875210D02*
Y880948D01*
Y875210D02*
X987750Y870750D01*
X980750Y867313D02*
Y882000D01*
Y867313D02*
X982532Y865531D01*
X981270Y891198D02*
Y894635D01*
X978730Y892250D02*
Y894635D01*
X977500Y895865D02*
X978730Y894635D01*
X977500Y895865D02*
Y905500D01*
X970250Y883770D02*
X978730Y892250D01*
X972790Y882718D02*
X981270Y891198D01*
X972790Y877960D02*
Y882718D01*
Y877960D02*
X975500Y875250D01*
X970250Y870063D02*
X970282Y870032D01*
X970250Y870063D02*
Y883770D01*
X757500Y716750D02*
Y731500D01*
X750000Y734000D02*
X760000D01*
X740000Y745250D02*
Y746000D01*
Y745250D02*
X750000Y735250D01*
Y734000D02*
Y735250D01*
X748500Y716750D02*
X748960Y717210D01*
Y722710D01*
X751325Y725075D01*
X751380D01*
D27*
X1040000Y770000D02*
Y787500D01*
X1026215Y756215D02*
X1040000Y770000D01*
X1026215Y714715D02*
Y756215D01*
X1035000Y792500D02*
X1040000Y787500D01*
X1035000Y792500D02*
Y820000D01*
X1040750Y825750D01*
Y857748D01*
X1018702Y767012D02*
Y827653D01*
X1032250Y841201D01*
Y866250D01*
X1035044Y840044D02*
Y860794D01*
X1021750Y826750D02*
X1035044Y840044D01*
X1021750Y765750D02*
Y826750D01*
X1040750Y857748D02*
X1041505Y858503D01*
X1035044Y860794D02*
X1040250Y866000D01*
X1032250Y866250D02*
X1040004Y874004D01*
X987500Y694500D02*
Y748500D01*
X982500Y694500D02*
Y747811D01*
X1018250Y839810D02*
Y883250D01*
X1011753Y837624D02*
Y877754D01*
X977500Y694500D02*
Y747121D01*
X972500Y694500D02*
Y746432D01*
X1025000Y842250D02*
Y878000D01*
X967500Y694500D02*
Y745742D01*
X962500Y694500D02*
Y745052D01*
X957500Y694500D02*
Y744363D01*
X952500Y682500D02*
Y694500D01*
X952500Y694500D01*
X967500Y745742D02*
X999250Y777492D01*
X962500Y745052D02*
X996202Y778755D01*
X999250Y777492D02*
Y824000D01*
X996202Y778755D02*
Y822738D01*
X957500Y744363D02*
X992500Y779363D01*
Y822129D01*
X855000Y685000D02*
X860000D01*
X862500Y687500D01*
X1012500Y694500D02*
Y706918D01*
X1011785Y707633D02*
X1012500Y706918D01*
X1040004Y874004D02*
X1040504D01*
X978879Y835750D02*
X992500Y822129D01*
X953750Y835750D02*
X978879D01*
X977439Y841500D02*
X996202Y822738D01*
X960000Y841500D02*
X977439D01*
X976000Y847250D02*
X999250Y824000D01*
X953750Y847250D02*
X976000D01*
X1032500Y686646D02*
Y694500D01*
Y686646D02*
X1036611Y682535D01*
X1051035D01*
X1057500Y689000D01*
X1022500Y694500D02*
Y711000D01*
X1026215Y714715D01*
X987500Y748500D02*
X1011750Y772750D01*
Y829000D01*
X1025000Y842250D01*
X1008702Y774013D02*
Y830263D01*
X1005654Y775275D02*
Y831525D01*
X982500Y747811D02*
X1008702Y774013D01*
X977500Y747121D02*
X1005654Y775275D01*
X972500Y746432D02*
X1002606Y776537D01*
X1008702Y830263D02*
X1018250Y839810D01*
X1005654Y831525D02*
X1011753Y837624D01*
X1011785Y707633D02*
Y755785D01*
X1021750Y765750D01*
X1007500Y755810D02*
X1018702Y767012D01*
X1007500Y694500D02*
Y755810D01*
X1002606Y776537D02*
Y835106D01*
X1004253Y836753D01*
Y877504D01*
D28*
X729500Y710000D02*
X735000Y715500D01*
X729500Y700000D02*
Y710000D01*
X722250Y692750D02*
X729500Y700000D01*
X716250Y692750D02*
X722250D01*
X735000Y715500D02*
Y716750D01*
X739500Y681250D02*
Y688750D01*
X748500Y681250D02*
Y688750D01*
X744000D02*
Y700500D01*
X753000Y688750D02*
Y696000D01*
X753000Y709500D02*
Y716750D01*
X739500Y709500D02*
Y716750D01*
X757500Y688750D02*
X761500Y692750D01*
X776250D01*
X744000Y716750D02*
Y724750D01*
D29*
X1105000Y807500D02*
X1113000D01*
D30*
X1115000Y789500D02*
X1122000D01*
X1130000Y797500D01*
X1091000Y791000D02*
Y800000D01*
D31*
X1148256Y720750D02*
X1148760Y720246D01*
D32*
X1055500Y782055D02*
Y782500D01*
D33*
X897247Y784249D02*
D03*
X973634Y799825D02*
D03*
X952500Y794500D02*
D03*
X894750Y765500D02*
D03*
X871000Y758200D02*
D03*
X890000Y797500D02*
D03*
X865000Y740000D02*
D03*
X960000Y792500D02*
D03*
X915000Y721500D02*
D03*
X945000Y758450D02*
D03*
X1035000Y832500D02*
D03*
X1042262Y765000D02*
D03*
X985000Y792500D02*
D03*
X1129509Y881504D02*
D03*
X1134759Y886754D02*
D03*
X1142250Y887750D02*
D03*
X1150000Y888250D02*
D03*
X1041505Y858503D02*
D03*
X1040250Y866000D02*
D03*
X784243Y818257D02*
D03*
X789461Y813039D02*
D03*
X791211Y798289D02*
D03*
X785993Y803507D02*
D03*
X789282Y839782D02*
D03*
X794500Y845000D02*
D03*
X881960Y827750D02*
D03*
X874580D02*
D03*
X897710Y835000D02*
D03*
X890330D02*
D03*
X912670Y840250D02*
D03*
X905290D02*
D03*
X921370Y848250D02*
D03*
X928750D02*
D03*
X938620Y850750D02*
D03*
X946000D02*
D03*
X1025000Y878000D02*
D03*
X1018250Y883250D02*
D03*
X1011753Y877754D02*
D03*
X960250Y829250D02*
D03*
X960000Y841500D02*
D03*
X953750Y835750D02*
D03*
Y847250D02*
D03*
X952500Y682500D02*
D03*
X992500D02*
D03*
X887500D02*
D03*
X942500D02*
D03*
X937500Y707500D02*
D03*
X922500Y682500D02*
D03*
X937500Y730000D02*
D03*
X822500Y827500D02*
D03*
X860000Y877500D02*
D03*
X830000Y872500D02*
D03*
X907500Y917500D02*
D03*
X972500D02*
D03*
X957500D02*
D03*
X942500D02*
D03*
X937500Y890000D02*
D03*
X1070000Y727500D02*
D03*
Y800000D02*
D03*
X1042500Y802500D02*
D03*
X1075250Y775000D02*
D03*
X1072500Y862500D02*
D03*
X1040504Y874004D02*
D03*
X830000Y792500D02*
D03*
Y802500D02*
D03*
Y752500D02*
D03*
Y737500D02*
D03*
Y712500D02*
D03*
Y767500D02*
D03*
X902500Y892500D02*
D03*
X932500Y917500D02*
D03*
X1017500D02*
D03*
X856250Y797500D02*
D03*
X1017500Y715000D02*
D03*
X1130000Y797500D02*
D03*
X1105000Y788000D02*
D03*
Y797500D02*
D03*
Y807500D02*
D03*
X1028750Y773750D02*
D03*
X1020500Y732000D02*
D03*
X1096500Y775000D02*
D03*
X1045250Y688250D02*
D03*
X1148760Y720246D02*
D03*
X1069500Y791000D02*
D03*
X1092750Y729500D02*
D03*
X1030000Y892000D02*
D03*
Y884620D02*
D03*
X1004253Y877504D02*
D03*
X1010753Y885504D02*
D03*
X1003250Y885020D02*
D03*
X995750Y880500D02*
D03*
X988250Y878250D02*
D03*
X975500Y875250D02*
D03*
X970282Y870032D02*
D03*
X987750Y870750D02*
D03*
X982532Y865531D02*
D03*
X744000Y724750D02*
D03*
X751380Y725075D02*
D03*
D34*
X707500Y817500D02*
D03*
X722500D02*
D03*
X750000D02*
D03*
X757500D02*
D03*
X732500Y730000D02*
D03*
X748250Y681000D02*
D03*
X739750D02*
D03*
X746250Y702750D02*
D03*
X737500Y705000D02*
D03*
X755000D02*
D03*
X710000Y717500D02*
D03*
X722500D02*
D03*
X716250Y712750D02*
D03*
X770000Y717500D02*
D03*
X782500D02*
D03*
X776250Y712750D02*
D03*
M02*
